[{
  "test_id" : 1,
  "startingparagraph" : "INSERT-CUSTOMER OF MAINLINE",
  "input" : {
    "cobol_program_inputs" : [ {
      "cobol_var" : {
        "program" : "RAEXPORT",
        "scope" : "PROGRAM",
        "var" : "LGAC-NCS",
        "type_str" : "X(2)"
      },
      "value" : "ON",
      "stmtline" : 420
    }, {
      "cobol_var" : {
        "program" : "RAEXPORT",
        "scope" : "PROGRAM",
        "var" : "DB2-CUSTOMERNUM-INT OF DB2-OUT-INTEGERS",
        "type_str" : "S9(9)"
      },
      "value" : 0,
      "stmtline" : 421
    }, {
      "cobol_var" : {
        "program" : "RAEXPORT",
        "scope" : "PROGRAM",
        "var" : "CA-FIRST-NAME OF CA-CUSTOMER-REQUEST OF DFHCOMMAREA-1",
        "type_str" : "X(10)"
      },
      "value" : "xxxxxxxxxx",
      "stmtline" : 421
    }, {
      "cobol_var" : {
        "program" : "RAEXPORT",
        "scope" : "PROGRAM",
        "var" : "CA-LAST-NAME OF CA-CUSTOMER-REQUEST OF DFHCOMMAREA-1",
        "type_str" : "X(20)"
      },
      "value" : "xxxxxxxxxxxxxxxxxxxx",
      "stmtline" : 421
    }, {
      "cobol_var" : {
        "program" : "RAEXPORT",
        "scope" : "PROGRAM",
        "var" : "CA-DOB OF CA-CUSTOMER-REQUEST OF DFHCOMMAREA-1",
        "type_str" : "X(10)"
      },
      "value" : "xxxxxxxxxx",
      "stmtline" : 421
    }, {
      "cobol_var" : {
        "program" : "RAEXPORT",
        "scope" : "PROGRAM",
        "var" : "CA-HOUSE-NAME OF CA-CUSTOMER-REQUEST OF DFHCOMMAREA-1",
        "type_str" : "X(20)"
      },
      "value" : "xxxxxxxxxxxxxxxxxxxx",
      "stmtline" : 421
    }, {
      "cobol_var" : {
        "program" : "RAEXPORT",
        "scope" : "PROGRAM",
        "var" : "CA-HOUSE-NUM OF CA-CUSTOMER-REQUEST OF DFHCOMMAREA-1",
        "type_str" : "X(4)"
      },
      "value" : "xxxx",
      "stmtline" : 421
    }, {
      "cobol_var" : {
        "program" : "RAEXPORT",
        "scope" : "PROGRAM",
        "var" : "CA-POSTCODE OF CA-CUSTOMER-REQUEST OF DFHCOMMAREA-1",
        "type_str" : "X(8)"
      },
      "value" : "xxxxxxxx",
      "stmtline" : 421
    }, {
      "cobol_var" : {
        "program" : "RAEXPORT",
        "scope" : "PROGRAM",
        "var" : "CA-PHONE-MOBILE OF CA-CUSTOMER-REQUEST OF DFHCOMMAREA-1",
        "type_str" : "X(20)"
      },
      "value" : "xxxxxxxxxxxxxxxxxxxx",
      "stmtline" : 421
    }, {
      "cobol_var" : {
        "program" : "RAEXPORT",
        "scope" : "PROGRAM",
        "var" : "CA-PHONE-HOME OF CA-CUSTOMER-REQUEST OF DFHCOMMAREA-1",
        "type_str" : "X(20)"
      },
      "value" : "xxxxxxxxxxxxxxxxxxxx",
      "stmtline" : 421
    }, {
      "cobol_var" : {
        "program" : "RAEXPORT",
        "scope" : "PROGRAM",
        "var" : "CA-EMAIL-ADDRESS OF CA-CUSTOMER-REQUEST OF DFHCOMMAREA-1",
        "type_str" : "X(100)"
      },
      "value" : "xxxxxxxxxxxxxxxxxxxxxxxxxxxxxxxxxxxxxxxxxxxxxxxxxxxxxxxxxxxxxxxxxxxxxxxxxxxxxxxxxxxxxxxxxxxxxxxxxxxx",
      "stmtline" : 421
    } ],
    "cobol_resource_inputs" : [ {
      "cobolprogram" : "RAEXPORT",
      "stmtline" : 421,
      "nextexecutableline" : 444,
      "stmt_type" : "SQL-INSERT",
      "instance" : 1,
      "input" : [ {
        "cobol_var" : {
          "program" : "RAEXPORT",
          "scope" : "PROGRAM",
          "var" : "SQLCODE OF SQLCA",
          "type_str" : "S9(9)"
        },
        "resource_var" : "",
        "values" : [ 10 ]
      } ],
      "info" : "INSERT INTO CUSTOMER ( CUSTOMERNUMBER, FIRSTNAME, LASTNAME, DATEOFBIRTH, HOUSENAME, HOUSENUMBER, POSTCODE, PHONEMOBILE, PHONEHOME, EMAILADDRESS ) VALUES ( :DB2-CUSTOMERNUM-INT, :CA-FIRST-NAME, :CA-LAST-NAME, :CA-DOB, :CA-HOUSE-NAME, :CA-HOUSE-NUM, :CA-POSTCODE, :CA-PHONE-MOBILE, :CA-PHONE-HOME, :CA-EMAIL-ADDRESS )"
    }, {
      "cobolprogram" : "RAEXPORT",
      "stmtline" : 446,
      "nextexecutableline" : 447,
      "stmt_type" : "PERFORM",
      "instance" : 1,
      "input" : [ ],
      "info" : "RAEXPORT/_TOPSECTION/WRITE-ERROR-MESSAGE"
    }, {
      "cobolprogram" : "RAEXPORT",
      "stmtline" : 447,
      "nextexecutableline" : -1,
      "stmt_type" : "CICS-RETURN",
      "instance" : 1,
      "input" : [ ],
      "info" : "RETURN"
    } ]
  },
  "output" : {
    "cobol_program_outputs" : [ {
      "cobol_var" : {
        "program" : "RAEXPORT",
        "scope" : "PROGRAM",
        "var" : "EM-SQLREQ OF EM-VARIABLE OF ERROR-MSG",
        "type_str" : "X(16)"
      },
      "stmtline" : 447
    }, {
      "cobol_var" : {
        "program" : "RAEXPORT",
        "scope" : "PROGRAM",
        "var" : "SQLCODE OF SQLCA",
        "type_str" : "S9(9)"
      },
      "stmtline" : 447
    }, {
      "cobol_var" : {
        "program" : "RAEXPORT",
        "scope" : "PROGRAM",
        "var" : "CA-RETURN-CODE OF DFHCOMMAREA-1",
        "type_str" : "9(2)"
      },
      "stmtline" : 447
    } ],
    "cobol_resource_outputs" : [ {
      "cobolprogram" : "RAEXPORT",
      "stmtline" : 421,
      "nextexecutableline" : 444,
      "stmt_type" : "SQL-INSERT",
      "instance" : 1,
      "output" : [ {
        "cobol_var" : {
          "program" : "RAEXPORT",
          "scope" : "PROGRAM",
          "var" : "DB2-CUSTOMERNUM-INT OF DB2-OUT-INTEGERS",
          "type_str" : "S9(9)"
        },
        "resource_var" : "CUSTOMER.CUSTOMERNUMBER"
      }, {
        "cobol_var" : {
          "program" : "RAEXPORT",
          "scope" : "PROGRAM",
          "var" : "CA-FIRST-NAME OF CA-CUSTOMER-REQUEST OF DFHCOMMAREA-1",
          "type_str" : "X(10)"
        },
        "resource_var" : "CUSTOMER.FIRSTNAME"
      }, {
        "cobol_var" : {
          "program" : "RAEXPORT",
          "scope" : "PROGRAM",
          "var" : "CA-LAST-NAME OF CA-CUSTOMER-REQUEST OF DFHCOMMAREA-1",
          "type_str" : "X(20)"
        },
        "resource_var" : "CUSTOMER.LASTNAME"
      }, {
        "cobol_var" : {
          "program" : "RAEXPORT",
          "scope" : "PROGRAM",
          "var" : "CA-DOB OF CA-CUSTOMER-REQUEST OF DFHCOMMAREA-1",
          "type_str" : "X(10)"
        },
        "resource_var" : "CUSTOMER.DATEOFBIRTH"
      }, {
        "cobol_var" : {
          "program" : "RAEXPORT",
          "scope" : "PROGRAM",
          "var" : "CA-HOUSE-NAME OF CA-CUSTOMER-REQUEST OF DFHCOMMAREA-1",
          "type_str" : "X(20)"
        },
        "resource_var" : "CUSTOMER.HOUSENAME"
      }, {
        "cobol_var" : {
          "program" : "RAEXPORT",
          "scope" : "PROGRAM",
          "var" : "CA-HOUSE-NUM OF CA-CUSTOMER-REQUEST OF DFHCOMMAREA-1",
          "type_str" : "X(4)"
        },
        "resource_var" : "CUSTOMER.HOUSENUMBER"
      }, {
        "cobol_var" : {
          "program" : "RAEXPORT",
          "scope" : "PROGRAM",
          "var" : "CA-POSTCODE OF CA-CUSTOMER-REQUEST OF DFHCOMMAREA-1",
          "type_str" : "X(8)"
        },
        "resource_var" : "CUSTOMER.POSTCODE"
      }, {
        "cobol_var" : {
          "program" : "RAEXPORT",
          "scope" : "PROGRAM",
          "var" : "CA-PHONE-MOBILE OF CA-CUSTOMER-REQUEST OF DFHCOMMAREA-1",
          "type_str" : "X(20)"
        },
        "resource_var" : "CUSTOMER.PHONEMOBILE"
      }, {
        "cobol_var" : {
          "program" : "RAEXPORT",
          "scope" : "PROGRAM",
          "var" : "CA-PHONE-HOME OF CA-CUSTOMER-REQUEST OF DFHCOMMAREA-1",
          "type_str" : "X(20)"
        },
        "resource_var" : "CUSTOMER.PHONEHOME"
      }, {
        "cobol_var" : {
          "program" : "RAEXPORT",
          "scope" : "PROGRAM",
          "var" : "CA-EMAIL-ADDRESS OF CA-CUSTOMER-REQUEST OF DFHCOMMAREA-1",
          "type_str" : "X(100)"
        },
        "resource_var" : "CUSTOMER.EMAILADDRESS"
      } ],
      "info" : "INSERT INTO CUSTOMER ( CUSTOMERNUMBER, FIRSTNAME, LASTNAME, DATEOFBIRTH, HOUSENAME, HOUSENUMBER, POSTCODE, PHONEMOBILE, PHONEHOME, EMAILADDRESS ) VALUES ( :DB2-CUSTOMERNUM-INT, :CA-FIRST-NAME, :CA-LAST-NAME, :CA-DOB, :CA-HOUSE-NAME, :CA-HOUSE-NUM, :CA-POSTCODE, :CA-PHONE-MOBILE, :CA-PHONE-HOME, :CA-EMAIL-ADDRESS )"
    }, {
      "cobolprogram" : "RAEXPORT",
      "stmtline" : 446,
      "nextexecutableline" : 447,
      "stmt_type" : "PERFORM",
      "instance" : 1,
      "output" : [ ],
      "info" : "RAEXPORT/_TOPSECTION/WRITE-ERROR-MESSAGE"
    }, {
      "cobolprogram" : "RAEXPORT",
      "stmtline" : 447,
      "nextexecutableline" : -1,
      "stmt_type" : "CICS-RETURN",
      "instance" : 1,
      "output" : [ ],
      "info" : "RETURN"
    } ]
  },
  "pathlines" : [ 416, 418, 420, 421, 444, 445, 446, 447 ]
},
{
  "test_id" : 2,
  "startingparagraph" : "INSERT-CUSTOMER OF MAINLINE",
  "input" : {
    "cobol_program_inputs" : [ {
      "cobol_var" : {
        "program" : "RAEXPORT",
        "scope" : "PROGRAM",
        "var" : "LGAC-NCS",
        "type_str" : "X(2)"
      },
      "value" : ",j",
      "stmtline" : 420
    }, {
      "cobol_var" : {
        "program" : "RAEXPORT",
        "scope" : "PROGRAM",
        "var" : "CA-FIRST-NAME OF CA-CUSTOMER-REQUEST OF DFHCOMMAREA-1",
        "type_str" : "X(10)"
      },
      "value" : "xxxxxxxxxx",
      "stmtline" : 450
    }, {
      "cobol_var" : {
        "program" : "RAEXPORT",
        "scope" : "PROGRAM",
        "var" : "CA-LAST-NAME OF CA-CUSTOMER-REQUEST OF DFHCOMMAREA-1",
        "type_str" : "X(20)"
      },
      "value" : "xxxxxxxxxxxxxxxxxxxx",
      "stmtline" : 450
    }, {
      "cobol_var" : {
        "program" : "RAEXPORT",
        "scope" : "PROGRAM",
        "var" : "CA-DOB OF CA-CUSTOMER-REQUEST OF DFHCOMMAREA-1",
        "type_str" : "X(10)"
      },
      "value" : "xxxxxxxxxx",
      "stmtline" : 450
    }, {
      "cobol_var" : {
        "program" : "RAEXPORT",
        "scope" : "PROGRAM",
        "var" : "CA-HOUSE-NAME OF CA-CUSTOMER-REQUEST OF DFHCOMMAREA-1",
        "type_str" : "X(20)"
      },
      "value" : "xxxxxxxxxxxxxxxxxxxx",
      "stmtline" : 450
    }, {
      "cobol_var" : {
        "program" : "RAEXPORT",
        "scope" : "PROGRAM",
        "var" : "CA-HOUSE-NUM OF CA-CUSTOMER-REQUEST OF DFHCOMMAREA-1",
        "type_str" : "X(4)"
      },
      "value" : "xxxx",
      "stmtline" : 450
    }, {
      "cobol_var" : {
        "program" : "RAEXPORT",
        "scope" : "PROGRAM",
        "var" : "CA-POSTCODE OF CA-CUSTOMER-REQUEST OF DFHCOMMAREA-1",
        "type_str" : "X(8)"
      },
      "value" : "xxxxxxxx",
      "stmtline" : 450
    }, {
      "cobol_var" : {
        "program" : "RAEXPORT",
        "scope" : "PROGRAM",
        "var" : "CA-PHONE-MOBILE OF CA-CUSTOMER-REQUEST OF DFHCOMMAREA-1",
        "type_str" : "X(20)"
      },
      "value" : "xxxxxxxxxxxxxxxxxxxx",
      "stmtline" : 450
    }, {
      "cobol_var" : {
        "program" : "RAEXPORT",
        "scope" : "PROGRAM",
        "var" : "CA-PHONE-HOME OF CA-CUSTOMER-REQUEST OF DFHCOMMAREA-1",
        "type_str" : "X(20)"
      },
      "value" : "xxxxxxxxxxxxxxxxxxxx",
      "stmtline" : 450
    }, {
      "cobol_var" : {
        "program" : "RAEXPORT",
        "scope" : "PROGRAM",
        "var" : "CA-EMAIL-ADDRESS OF CA-CUSTOMER-REQUEST OF DFHCOMMAREA-1",
        "type_str" : "X(100)"
      },
      "value" : "xxxxxxxxxxxxxxxxxxxxxxxxxxxxxxxxxxxxxxxxxxxxxxxxxxxxxxxxxxxxxxxxxxxxxxxxxxxxxxxxxxxxxxxxxxxxxxxxxxxx",
      "stmtline" : 450
    } ],
    "cobol_resource_inputs" : [ {
      "cobolprogram" : "RAEXPORT",
      "stmtline" : 450,
      "nextexecutableline" : 473,
      "stmt_type" : "SQL-INSERT",
      "instance" : 1,
      "input" : [ {
        "cobol_var" : {
          "program" : "RAEXPORT",
          "scope" : "PROGRAM",
          "var" : "SQLCODE OF SQLCA",
          "type_str" : "S9(9)"
        },
        "resource_var" : "",
        "values" : [ 0 ]
      } ],
      "info" : "INSERT INTO CUSTOMER ( CUSTOMERNUMBER, FIRSTNAME, LASTNAME, DATEOFBIRTH, HOUSENAME, HOUSENUMBER, POSTCODE, PHONEMOBILE, PHONEHOME, EMAILADDRESS ) VALUES ( DEFAULT, :CA-FIRST-NAME, :CA-LAST-NAME, :CA-DOB, :CA-HOUSE-NAME, :CA-HOUSE-NUM, :CA-POSTCODE, :CA-PHONE-MOBILE, :CA-PHONE-HOME, :CA-EMAIL-ADDRESS )"
    }, {
      "cobolprogram" : "RAEXPORT",
      "stmtline" : 479,
      "nextexecutableline" : 484,
      "stmt_type" : "SQL-SET",
      "instance" : 1,
      "input" : [ {
        "cobol_var" : {
          "program" : "RAEXPORT",
          "scope" : "PROGRAM",
          "var" : "DB2-CUSTOMERNUM-INT OF DB2-OUT-INTEGERS",
          "type_str" : "S9(9)"
        },
        "resource_var" : "",
        "values" : [ 0 ]
      }, {
        "cobol_var" : {
          "program" : "RAEXPORT",
          "scope" : "PROGRAM",
          "var" : "SQLCODE OF SQLCA",
          "type_str" : "S9(9)"
        },
        "resource_var" : "",
        "values" : [ 0 ]
      } ],
      "info" : "SET :DB2-CUSTOMERNUM-INT = IDENTITY_VAL_LOCAL()"
    } ]
  },
  "output" : {
    "cobol_program_outputs" : [ {
      "cobol_var" : {
        "program" : "RAEXPORT",
        "scope" : "PROGRAM",
        "var" : "EM-SQLREQ OF EM-VARIABLE OF ERROR-MSG",
        "type_str" : "X(16)"
      },
      "stmtline" : 486
    }, {
      "cobol_var" : {
        "program" : "RAEXPORT",
        "scope" : "PROGRAM",
        "var" : "DB2-CUSTOMERNUM-INT OF DB2-OUT-INTEGERS",
        "type_str" : "S9(9)"
      },
      "stmtline" : 486
    }, {
      "cobol_var" : {
        "program" : "RAEXPORT",
        "scope" : "PROGRAM",
        "var" : "SQLCODE OF SQLCA",
        "type_str" : "S9(9)"
      },
      "stmtline" : 486
    }, {
      "cobol_var" : {
        "program" : "RAEXPORT",
        "scope" : "PROGRAM",
        "var" : "CA-CUSTOMER-NUM OF DFHCOMMAREA-1",
        "type_str" : "9(10)"
      },
      "stmtline" : 486
    } ],
    "cobol_resource_outputs" : [ {
      "cobolprogram" : "RAEXPORT",
      "stmtline" : 450,
      "nextexecutableline" : 473,
      "stmt_type" : "SQL-INSERT",
      "instance" : 1,
      "output" : [ {
        "cobol_var" : {
          "program" : "RAEXPORT",
          "scope" : "PROGRAM",
          "var" : "CA-FIRST-NAME OF CA-CUSTOMER-REQUEST OF DFHCOMMAREA-1",
          "type_str" : "X(10)"
        },
        "resource_var" : "CUSTOMER.FIRSTNAME"
      }, {
        "cobol_var" : {
          "program" : "RAEXPORT",
          "scope" : "PROGRAM",
          "var" : "CA-LAST-NAME OF CA-CUSTOMER-REQUEST OF DFHCOMMAREA-1",
          "type_str" : "X(20)"
        },
        "resource_var" : "CUSTOMER.LASTNAME"
      }, {
        "cobol_var" : {
          "program" : "RAEXPORT",
          "scope" : "PROGRAM",
          "var" : "CA-DOB OF CA-CUSTOMER-REQUEST OF DFHCOMMAREA-1",
          "type_str" : "X(10)"
        },
        "resource_var" : "CUSTOMER.DATEOFBIRTH"
      }, {
        "cobol_var" : {
          "program" : "RAEXPORT",
          "scope" : "PROGRAM",
          "var" : "CA-HOUSE-NAME OF CA-CUSTOMER-REQUEST OF DFHCOMMAREA-1",
          "type_str" : "X(20)"
        },
        "resource_var" : "CUSTOMER.HOUSENAME"
      }, {
        "cobol_var" : {
          "program" : "RAEXPORT",
          "scope" : "PROGRAM",
          "var" : "CA-HOUSE-NUM OF CA-CUSTOMER-REQUEST OF DFHCOMMAREA-1",
          "type_str" : "X(4)"
        },
        "resource_var" : "CUSTOMER.HOUSENUMBER"
      }, {
        "cobol_var" : {
          "program" : "RAEXPORT",
          "scope" : "PROGRAM",
          "var" : "CA-POSTCODE OF CA-CUSTOMER-REQUEST OF DFHCOMMAREA-1",
          "type_str" : "X(8)"
        },
        "resource_var" : "CUSTOMER.POSTCODE"
      }, {
        "cobol_var" : {
          "program" : "RAEXPORT",
          "scope" : "PROGRAM",
          "var" : "CA-PHONE-MOBILE OF CA-CUSTOMER-REQUEST OF DFHCOMMAREA-1",
          "type_str" : "X(20)"
        },
        "resource_var" : "CUSTOMER.PHONEMOBILE"
      }, {
        "cobol_var" : {
          "program" : "RAEXPORT",
          "scope" : "PROGRAM",
          "var" : "CA-PHONE-HOME OF CA-CUSTOMER-REQUEST OF DFHCOMMAREA-1",
          "type_str" : "X(20)"
        },
        "resource_var" : "CUSTOMER.PHONEHOME"
      }, {
        "cobol_var" : {
          "program" : "RAEXPORT",
          "scope" : "PROGRAM",
          "var" : "CA-EMAIL-ADDRESS OF CA-CUSTOMER-REQUEST OF DFHCOMMAREA-1",
          "type_str" : "X(100)"
        },
        "resource_var" : "CUSTOMER.EMAILADDRESS"
      } ],
      "info" : "INSERT INTO CUSTOMER ( CUSTOMERNUMBER, FIRSTNAME, LASTNAME, DATEOFBIRTH, HOUSENAME, HOUSENUMBER, POSTCODE, PHONEMOBILE, PHONEHOME, EMAILADDRESS ) VALUES ( DEFAULT, :CA-FIRST-NAME, :CA-LAST-NAME, :CA-DOB, :CA-HOUSE-NAME, :CA-HOUSE-NUM, :CA-POSTCODE, :CA-PHONE-MOBILE, :CA-PHONE-HOME, :CA-EMAIL-ADDRESS )"
    }, {
      "cobolprogram" : "RAEXPORT",
      "stmtline" : 479,
      "nextexecutableline" : 484,
      "stmt_type" : "SQL-SET",
      "instance" : 1,
      "output" : [ ],
      "info" : "SET :DB2-CUSTOMERNUM-INT = IDENTITY_VAL_LOCAL()"
    } ]
  },
  "pathlines" : [ 416, 418, 420, 450, 473, 479, 484, 486 ]
},
{
  "test_id" : 3,
  "startingparagraph" : "INSERT-CUSTOMER OF MAINLINE",
  "input" : {
    "cobol_program_inputs" : [ {
      "cobol_var" : {
        "program" : "RAEXPORT",
        "scope" : "PROGRAM",
        "var" : "LGAC-NCS",
        "type_str" : "X(2)"
      },
      "value" : "lH",
      "stmtline" : 420
    }, {
      "cobol_var" : {
        "program" : "RAEXPORT",
        "scope" : "PROGRAM",
        "var" : "CA-FIRST-NAME OF CA-CUSTOMER-REQUEST OF DFHCOMMAREA-1",
        "type_str" : "X(10)"
      },
      "value" : "xxxxxxxxxx",
      "stmtline" : 450
    }, {
      "cobol_var" : {
        "program" : "RAEXPORT",
        "scope" : "PROGRAM",
        "var" : "CA-LAST-NAME OF CA-CUSTOMER-REQUEST OF DFHCOMMAREA-1",
        "type_str" : "X(20)"
      },
      "value" : "xxxxxxxxxxxxxxxxxxxx",
      "stmtline" : 450
    }, {
      "cobol_var" : {
        "program" : "RAEXPORT",
        "scope" : "PROGRAM",
        "var" : "CA-DOB OF CA-CUSTOMER-REQUEST OF DFHCOMMAREA-1",
        "type_str" : "X(10)"
      },
      "value" : "xxxxxxxxxx",
      "stmtline" : 450
    }, {
      "cobol_var" : {
        "program" : "RAEXPORT",
        "scope" : "PROGRAM",
        "var" : "CA-HOUSE-NAME OF CA-CUSTOMER-REQUEST OF DFHCOMMAREA-1",
        "type_str" : "X(20)"
      },
      "value" : "xxxxxxxxxxxxxxxxxxxx",
      "stmtline" : 450
    }, {
      "cobol_var" : {
        "program" : "RAEXPORT",
        "scope" : "PROGRAM",
        "var" : "CA-HOUSE-NUM OF CA-CUSTOMER-REQUEST OF DFHCOMMAREA-1",
        "type_str" : "X(4)"
      },
      "value" : "xxxx",
      "stmtline" : 450
    }, {
      "cobol_var" : {
        "program" : "RAEXPORT",
        "scope" : "PROGRAM",
        "var" : "CA-POSTCODE OF CA-CUSTOMER-REQUEST OF DFHCOMMAREA-1",
        "type_str" : "X(8)"
      },
      "value" : "xxxxxxxx",
      "stmtline" : 450
    }, {
      "cobol_var" : {
        "program" : "RAEXPORT",
        "scope" : "PROGRAM",
        "var" : "CA-PHONE-MOBILE OF CA-CUSTOMER-REQUEST OF DFHCOMMAREA-1",
        "type_str" : "X(20)"
      },
      "value" : "xxxxxxxxxxxxxxxxxxxx",
      "stmtline" : 450
    }, {
      "cobol_var" : {
        "program" : "RAEXPORT",
        "scope" : "PROGRAM",
        "var" : "CA-PHONE-HOME OF CA-CUSTOMER-REQUEST OF DFHCOMMAREA-1",
        "type_str" : "X(20)"
      },
      "value" : "xxxxxxxxxxxxxxxxxxxx",
      "stmtline" : 450
    }, {
      "cobol_var" : {
        "program" : "RAEXPORT",
        "scope" : "PROGRAM",
        "var" : "CA-EMAIL-ADDRESS OF CA-CUSTOMER-REQUEST OF DFHCOMMAREA-1",
        "type_str" : "X(100)"
      },
      "value" : "xxxxxxxxxxxxxxxxxxxxxxxxxxxxxxxxxxxxxxxxxxxxxxxxxxxxxxxxxxxxxxxxxxxxxxxxxxxxxxxxxxxxxxxxxxxxxxxxxxxx",
      "stmtline" : 450
    } ],
    "cobol_resource_inputs" : [ {
      "cobolprogram" : "RAEXPORT",
      "stmtline" : 450,
      "nextexecutableline" : 473,
      "stmt_type" : "SQL-INSERT",
      "instance" : 1,
      "input" : [ {
        "cobol_var" : {
          "program" : "RAEXPORT",
          "scope" : "PROGRAM",
          "var" : "SQLCODE OF SQLCA",
          "type_str" : "S9(9)"
        },
        "resource_var" : "",
        "values" : [ -1 ]
      } ],
      "info" : "INSERT INTO CUSTOMER ( CUSTOMERNUMBER, FIRSTNAME, LASTNAME, DATEOFBIRTH, HOUSENAME, HOUSENUMBER, POSTCODE, PHONEMOBILE, PHONEHOME, EMAILADDRESS ) VALUES ( DEFAULT, :CA-FIRST-NAME, :CA-LAST-NAME, :CA-DOB, :CA-HOUSE-NAME, :CA-HOUSE-NUM, :CA-POSTCODE, :CA-PHONE-MOBILE, :CA-PHONE-HOME, :CA-EMAIL-ADDRESS )"
    }, {
      "cobolprogram" : "RAEXPORT",
      "stmtline" : 475,
      "nextexecutableline" : 476,
      "stmt_type" : "PERFORM",
      "instance" : 1,
      "input" : [ ],
      "info" : "RAEXPORT/_TOPSECTION/WRITE-ERROR-MESSAGE"
    }, {
      "cobolprogram" : "RAEXPORT",
      "stmtline" : 476,
      "nextexecutableline" : -1,
      "stmt_type" : "CICS-RETURN",
      "instance" : 1,
      "input" : [ ],
      "info" : "RETURN"
    } ]
  },
  "output" : {
    "cobol_program_outputs" : [ {
      "cobol_var" : {
        "program" : "RAEXPORT",
        "scope" : "PROGRAM",
        "var" : "EM-SQLREQ OF EM-VARIABLE OF ERROR-MSG",
        "type_str" : "X(16)"
      },
      "stmtline" : 476
    }, {
      "cobol_var" : {
        "program" : "RAEXPORT",
        "scope" : "PROGRAM",
        "var" : "SQLCODE OF SQLCA",
        "type_str" : "S9(9)"
      },
      "stmtline" : 476
    }, {
      "cobol_var" : {
        "program" : "RAEXPORT",
        "scope" : "PROGRAM",
        "var" : "CA-RETURN-CODE OF DFHCOMMAREA-1",
        "type_str" : "9(2)"
      },
      "stmtline" : 476
    } ],
    "cobol_resource_outputs" : [ {
      "cobolprogram" : "RAEXPORT",
      "stmtline" : 450,
      "nextexecutableline" : 473,
      "stmt_type" : "SQL-INSERT",
      "instance" : 1,
      "output" : [ {
        "cobol_var" : {
          "program" : "RAEXPORT",
          "scope" : "PROGRAM",
          "var" : "CA-FIRST-NAME OF CA-CUSTOMER-REQUEST OF DFHCOMMAREA-1",
          "type_str" : "X(10)"
        },
        "resource_var" : "CUSTOMER.FIRSTNAME"
      }, {
        "cobol_var" : {
          "program" : "RAEXPORT",
          "scope" : "PROGRAM",
          "var" : "CA-LAST-NAME OF CA-CUSTOMER-REQUEST OF DFHCOMMAREA-1",
          "type_str" : "X(20)"
        },
        "resource_var" : "CUSTOMER.LASTNAME"
      }, {
        "cobol_var" : {
          "program" : "RAEXPORT",
          "scope" : "PROGRAM",
          "var" : "CA-DOB OF CA-CUSTOMER-REQUEST OF DFHCOMMAREA-1",
          "type_str" : "X(10)"
        },
        "resource_var" : "CUSTOMER.DATEOFBIRTH"
      }, {
        "cobol_var" : {
          "program" : "RAEXPORT",
          "scope" : "PROGRAM",
          "var" : "CA-HOUSE-NAME OF CA-CUSTOMER-REQUEST OF DFHCOMMAREA-1",
          "type_str" : "X(20)"
        },
        "resource_var" : "CUSTOMER.HOUSENAME"
      }, {
        "cobol_var" : {
          "program" : "RAEXPORT",
          "scope" : "PROGRAM",
          "var" : "CA-HOUSE-NUM OF CA-CUSTOMER-REQUEST OF DFHCOMMAREA-1",
          "type_str" : "X(4)"
        },
        "resource_var" : "CUSTOMER.HOUSENUMBER"
      }, {
        "cobol_var" : {
          "program" : "RAEXPORT",
          "scope" : "PROGRAM",
          "var" : "CA-POSTCODE OF CA-CUSTOMER-REQUEST OF DFHCOMMAREA-1",
          "type_str" : "X(8)"
        },
        "resource_var" : "CUSTOMER.POSTCODE"
      }, {
        "cobol_var" : {
          "program" : "RAEXPORT",
          "scope" : "PROGRAM",
          "var" : "CA-PHONE-MOBILE OF CA-CUSTOMER-REQUEST OF DFHCOMMAREA-1",
          "type_str" : "X(20)"
        },
        "resource_var" : "CUSTOMER.PHONEMOBILE"
      }, {
        "cobol_var" : {
          "program" : "RAEXPORT",
          "scope" : "PROGRAM",
          "var" : "CA-PHONE-HOME OF CA-CUSTOMER-REQUEST OF DFHCOMMAREA-1",
          "type_str" : "X(20)"
        },
        "resource_var" : "CUSTOMER.PHONEHOME"
      }, {
        "cobol_var" : {
          "program" : "RAEXPORT",
          "scope" : "PROGRAM",
          "var" : "CA-EMAIL-ADDRESS OF CA-CUSTOMER-REQUEST OF DFHCOMMAREA-1",
          "type_str" : "X(100)"
        },
        "resource_var" : "CUSTOMER.EMAILADDRESS"
      } ],
      "info" : "INSERT INTO CUSTOMER ( CUSTOMERNUMBER, FIRSTNAME, LASTNAME, DATEOFBIRTH, HOUSENAME, HOUSENUMBER, POSTCODE, PHONEMOBILE, PHONEHOME, EMAILADDRESS ) VALUES ( DEFAULT, :CA-FIRST-NAME, :CA-LAST-NAME, :CA-DOB, :CA-HOUSE-NAME, :CA-HOUSE-NUM, :CA-POSTCODE, :CA-PHONE-MOBILE, :CA-PHONE-HOME, :CA-EMAIL-ADDRESS )"
    }, {
      "cobolprogram" : "RAEXPORT",
      "stmtline" : 475,
      "nextexecutableline" : 476,
      "stmt_type" : "PERFORM",
      "instance" : 1,
      "output" : [ ],
      "info" : "RAEXPORT/_TOPSECTION/WRITE-ERROR-MESSAGE"
    }, {
      "cobolprogram" : "RAEXPORT",
      "stmtline" : 476,
      "nextexecutableline" : -1,
      "stmt_type" : "CICS-RETURN",
      "instance" : 1,
      "output" : [ ],
      "info" : "RETURN"
    } ]
  },
  "pathlines" : [ 416, 418, 420, 450, 473, 474, 475, 476 ]
},
{
  "test_id" : 4,
  "startingparagraph" : "INSERT-CUSTOMER OF MAINLINE",
  "input" : {
    "cobol_program_inputs" : [ {
      "cobol_var" : {
        "program" : "RAEXPORT",
        "scope" : "PROGRAM",
        "var" : "LGAC-NCS",
        "type_str" : "X(2)"
      },
      "value" : "ON",
      "stmtline" : 420
    }, {
      "cobol_var" : {
        "program" : "RAEXPORT",
        "scope" : "PROGRAM",
        "var" : "DB2-CUSTOMERNUM-INT OF DB2-OUT-INTEGERS",
        "type_str" : "S9(9)"
      },
      "value" : 0,
      "stmtline" : 421
    }, {
      "cobol_var" : {
        "program" : "RAEXPORT",
        "scope" : "PROGRAM",
        "var" : "CA-FIRST-NAME OF CA-CUSTOMER-REQUEST OF DFHCOMMAREA-1",
        "type_str" : "X(10)"
      },
      "value" : "xxxxxxxxxx",
      "stmtline" : 421
    }, {
      "cobol_var" : {
        "program" : "RAEXPORT",
        "scope" : "PROGRAM",
        "var" : "CA-LAST-NAME OF CA-CUSTOMER-REQUEST OF DFHCOMMAREA-1",
        "type_str" : "X(20)"
      },
      "value" : "xxxxxxxxxxxxxxxxxxxx",
      "stmtline" : 421
    }, {
      "cobol_var" : {
        "program" : "RAEXPORT",
        "scope" : "PROGRAM",
        "var" : "CA-DOB OF CA-CUSTOMER-REQUEST OF DFHCOMMAREA-1",
        "type_str" : "X(10)"
      },
      "value" : "xxxxxxxxxx",
      "stmtline" : 421
    }, {
      "cobol_var" : {
        "program" : "RAEXPORT",
        "scope" : "PROGRAM",
        "var" : "CA-HOUSE-NAME OF CA-CUSTOMER-REQUEST OF DFHCOMMAREA-1",
        "type_str" : "X(20)"
      },
      "value" : "xxxxxxxxxxxxxxxxxxxx",
      "stmtline" : 421
    }, {
      "cobol_var" : {
        "program" : "RAEXPORT",
        "scope" : "PROGRAM",
        "var" : "CA-HOUSE-NUM OF CA-CUSTOMER-REQUEST OF DFHCOMMAREA-1",
        "type_str" : "X(4)"
      },
      "value" : "xxxx",
      "stmtline" : 421
    }, {
      "cobol_var" : {
        "program" : "RAEXPORT",
        "scope" : "PROGRAM",
        "var" : "CA-POSTCODE OF CA-CUSTOMER-REQUEST OF DFHCOMMAREA-1",
        "type_str" : "X(8)"
      },
      "value" : "xxxxxxxx",
      "stmtline" : 421
    }, {
      "cobol_var" : {
        "program" : "RAEXPORT",
        "scope" : "PROGRAM",
        "var" : "CA-PHONE-MOBILE OF CA-CUSTOMER-REQUEST OF DFHCOMMAREA-1",
        "type_str" : "X(20)"
      },
      "value" : "xxxxxxxxxxxxxxxxxxxx",
      "stmtline" : 421
    }, {
      "cobol_var" : {
        "program" : "RAEXPORT",
        "scope" : "PROGRAM",
        "var" : "CA-PHONE-HOME OF CA-CUSTOMER-REQUEST OF DFHCOMMAREA-1",
        "type_str" : "X(20)"
      },
      "value" : "xxxxxxxxxxxxxxxxxxxx",
      "stmtline" : 421
    }, {
      "cobol_var" : {
        "program" : "RAEXPORT",
        "scope" : "PROGRAM",
        "var" : "CA-EMAIL-ADDRESS OF CA-CUSTOMER-REQUEST OF DFHCOMMAREA-1",
        "type_str" : "X(100)"
      },
      "value" : "xxxxxxxxxxxxxxxxxxxxxxxxxxxxxxxxxxxxxxxxxxxxxxxxxxxxxxxxxxxxxxxxxxxxxxxxxxxxxxxxxxxxxxxxxxxxxxxxxxxx",
      "stmtline" : 421
    } ],
    "cobol_resource_inputs" : [ {
      "cobolprogram" : "RAEXPORT",
      "stmtline" : 421,
      "nextexecutableline" : 444,
      "stmt_type" : "SQL-INSERT",
      "instance" : 1,
      "input" : [ {
        "cobol_var" : {
          "program" : "RAEXPORT",
          "scope" : "PROGRAM",
          "var" : "SQLCODE OF SQLCA",
          "type_str" : "S9(9)"
        },
        "resource_var" : "",
        "values" : [ 0 ]
      } ],
      "info" : "INSERT INTO CUSTOMER ( CUSTOMERNUMBER, FIRSTNAME, LASTNAME, DATEOFBIRTH, HOUSENAME, HOUSENUMBER, POSTCODE, PHONEMOBILE, PHONEHOME, EMAILADDRESS ) VALUES ( :DB2-CUSTOMERNUM-INT, :CA-FIRST-NAME, :CA-LAST-NAME, :CA-DOB, :CA-HOUSE-NAME, :CA-HOUSE-NUM, :CA-POSTCODE, :CA-PHONE-MOBILE, :CA-PHONE-HOME, :CA-EMAIL-ADDRESS )"
    } ]
  },
  "output" : {
    "cobol_program_outputs" : [ {
      "cobol_var" : {
        "program" : "RAEXPORT",
        "scope" : "PROGRAM",
        "var" : "EM-SQLREQ OF EM-VARIABLE OF ERROR-MSG",
        "type_str" : "X(16)"
      },
      "stmtline" : 486
    }, {
      "cobol_var" : {
        "program" : "RAEXPORT",
        "scope" : "PROGRAM",
        "var" : "SQLCODE OF SQLCA",
        "type_str" : "S9(9)"
      },
      "stmtline" : 486
    }, {
      "cobol_var" : {
        "program" : "RAEXPORT",
        "scope" : "PROGRAM",
        "var" : "CA-CUSTOMER-NUM OF DFHCOMMAREA-1",
        "type_str" : "9(10)"
      },
      "stmtline" : 486
    } ],
    "cobol_resource_outputs" : [ {
      "cobolprogram" : "RAEXPORT",
      "stmtline" : 421,
      "nextexecutableline" : 444,
      "stmt_type" : "SQL-INSERT",
      "instance" : 1,
      "output" : [ {
        "cobol_var" : {
          "program" : "RAEXPORT",
          "scope" : "PROGRAM",
          "var" : "DB2-CUSTOMERNUM-INT OF DB2-OUT-INTEGERS",
          "type_str" : "S9(9)"
        },
        "resource_var" : "CUSTOMER.CUSTOMERNUMBER"
      }, {
        "cobol_var" : {
          "program" : "RAEXPORT",
          "scope" : "PROGRAM",
          "var" : "CA-FIRST-NAME OF CA-CUSTOMER-REQUEST OF DFHCOMMAREA-1",
          "type_str" : "X(10)"
        },
        "resource_var" : "CUSTOMER.FIRSTNAME"
      }, {
        "cobol_var" : {
          "program" : "RAEXPORT",
          "scope" : "PROGRAM",
          "var" : "CA-LAST-NAME OF CA-CUSTOMER-REQUEST OF DFHCOMMAREA-1",
          "type_str" : "X(20)"
        },
        "resource_var" : "CUSTOMER.LASTNAME"
      }, {
        "cobol_var" : {
          "program" : "RAEXPORT",
          "scope" : "PROGRAM",
          "var" : "CA-DOB OF CA-CUSTOMER-REQUEST OF DFHCOMMAREA-1",
          "type_str" : "X(10)"
        },
        "resource_var" : "CUSTOMER.DATEOFBIRTH"
      }, {
        "cobol_var" : {
          "program" : "RAEXPORT",
          "scope" : "PROGRAM",
          "var" : "CA-HOUSE-NAME OF CA-CUSTOMER-REQUEST OF DFHCOMMAREA-1",
          "type_str" : "X(20)"
        },
        "resource_var" : "CUSTOMER.HOUSENAME"
      }, {
        "cobol_var" : {
          "program" : "RAEXPORT",
          "scope" : "PROGRAM",
          "var" : "CA-HOUSE-NUM OF CA-CUSTOMER-REQUEST OF DFHCOMMAREA-1",
          "type_str" : "X(4)"
        },
        "resource_var" : "CUSTOMER.HOUSENUMBER"
      }, {
        "cobol_var" : {
          "program" : "RAEXPORT",
          "scope" : "PROGRAM",
          "var" : "CA-POSTCODE OF CA-CUSTOMER-REQUEST OF DFHCOMMAREA-1",
          "type_str" : "X(8)"
        },
        "resource_var" : "CUSTOMER.POSTCODE"
      }, {
        "cobol_var" : {
          "program" : "RAEXPORT",
          "scope" : "PROGRAM",
          "var" : "CA-PHONE-MOBILE OF CA-CUSTOMER-REQUEST OF DFHCOMMAREA-1",
          "type_str" : "X(20)"
        },
        "resource_var" : "CUSTOMER.PHONEMOBILE"
      }, {
        "cobol_var" : {
          "program" : "RAEXPORT",
          "scope" : "PROGRAM",
          "var" : "CA-PHONE-HOME OF CA-CUSTOMER-REQUEST OF DFHCOMMAREA-1",
          "type_str" : "X(20)"
        },
        "resource_var" : "CUSTOMER.PHONEHOME"
      }, {
        "cobol_var" : {
          "program" : "RAEXPORT",
          "scope" : "PROGRAM",
          "var" : "CA-EMAIL-ADDRESS OF CA-CUSTOMER-REQUEST OF DFHCOMMAREA-1",
          "type_str" : "X(100)"
        },
        "resource_var" : "CUSTOMER.EMAILADDRESS"
      } ],
      "info" : "INSERT INTO CUSTOMER ( CUSTOMERNUMBER, FIRSTNAME, LASTNAME, DATEOFBIRTH, HOUSENAME, HOUSENUMBER, POSTCODE, PHONEMOBILE, PHONEHOME, EMAILADDRESS ) VALUES ( :DB2-CUSTOMERNUM-INT, :CA-FIRST-NAME, :CA-LAST-NAME, :CA-DOB, :CA-HOUSE-NAME, :CA-HOUSE-NUM, :CA-POSTCODE, :CA-PHONE-MOBILE, :CA-PHONE-HOME, :CA-EMAIL-ADDRESS )"
    } ]
  },
  "pathlines" : [ 416, 418, 420, 421, 444, 484, 486 ]
}
]