{
  "status" : "SUCCEEDED",
  "test_input_data_num" : 1,
  "verification_failuer_testid_list" : [ ],
  "instruction_num" : 3,
  "branch_instruction_num" : 0,
  "uncovered_branch_num" : 0,
  "branch_cover_rate" : 1.0,
  "uncovered_branch_list" : [ ],
  "elapsed_time" : "    0.646055350"
}