[{
  "test_id" : 1,
  "startingparagraph" : "FRAUD-CHECK OF MAINLINE",
  "input" : {
    "cobol_program_inputs" : [ ],
    "cobol_resource_inputs" : [ {
      "cobolprogram" : "RALGACUS",
      "stmtline" : 364,
      "nextexecutableline" : -1,
      "stmt_type" : "CALL",
      "instance" : 1,
      "input" : [ {
        "cobol_var" : {
          "program" : "RALGACUS",
          "scope" : "PROGRAM",
          "var" : "LGACJV01 OF WS-JAVA-VARIABLES",
          "type_str" : "X(8)"
        },
        "resource_var" : "",
        "values" : [ "?* *****" ]
      }, {
        "cobol_var" : {
          "program" : "RALGACUS",
          "scope" : "PROGRAM",
          "var" : "CA-PHONE-MOBILE OF CA-CUSTOMER-REQUEST OF DFHCOMMAREA-1",
          "type_str" : "X(20)"
        },
        "resource_var" : "",
        "values" : [ "**a&'YUv\"**<*1***J**" ]
      }, {
        "cobol_var" : {
          "program" : "RALGACUS",
          "scope" : "PROGRAM",
          "var" : "WS-STATUS OF WS-JAVA-VARIABLES",
          "type_str" : "X(5)"
        },
        "resource_var" : "",
        "values" : [ "b *<*" ]
      } ],
      "info" : "JAVA"
    } ]
  },
  "output" : {
    "cobol_program_outputs" : [ {
      "cobol_var" : {
        "program" : "RALGACUS",
        "scope" : "PROGRAM",
        "var" : "LGACJV01 OF WS-JAVA-VARIABLES",
        "type_str" : "X(8)"
      },
      "stmtline" : 364
    }, {
      "cobol_var" : {
        "program" : "RALGACUS",
        "scope" : "PROGRAM",
        "var" : "WS-STATUS OF WS-JAVA-VARIABLES",
        "type_str" : "X(5)"
      },
      "stmtline" : 364
    }, {
      "cobol_var" : {
        "program" : "RALGACUS",
        "scope" : "PROGRAM",
        "var" : "CA-PHONE-MOBILE OF CA-CUSTOMER-REQUEST OF DFHCOMMAREA-1",
        "type_str" : "X(20)"
      },
      "stmtline" : 364
    } ],
    "cobol_resource_outputs" : [ {
      "cobolprogram" : "RALGACUS",
      "stmtline" : 364,
      "nextexecutableline" : -1,
      "stmt_type" : "CALL",
      "instance" : 1,
      "output" : [ {
        "cobol_var" : {
          "program" : "RALGACUS",
          "scope" : "PROGRAM",
          "var" : "LGACJV01 OF WS-JAVA-VARIABLES",
          "type_str" : "X(8)"
        },
        "resource_var" : ""
      }, {
        "cobol_var" : {
          "program" : "RALGACUS",
          "scope" : "PROGRAM",
          "var" : "CA-PHONE-MOBILE OF CA-CUSTOMER-REQUEST OF DFHCOMMAREA-1",
          "type_str" : "X(20)"
        },
        "resource_var" : ""
      }, {
        "cobol_var" : {
          "program" : "RALGACUS",
          "scope" : "PROGRAM",
          "var" : "WS-STATUS OF WS-JAVA-VARIABLES",
          "type_str" : "X(5)"
        },
        "resource_var" : ""
      } ],
      "info" : "JAVA"
    } ]
  },
  "pathlines" : [ 362, 364 ]
}
]